<?xml version="1.0" encoding="UTF-8"?>
<coverage generated="1368973416">
  <project timestamp="1368973416">
    <file name="/Users/mbneto/Sites/jenkins/src/BankAccount.php">
      <class name="BankAccount" namespace="global">
        <metrics methods="1" coveredmethods="1" conditionals="0" coveredconditionals="0" statements="1" coveredstatements="1" elements="2" coveredelements="2"/>
      </class>
      <line num="14" type="method" name="deposit" crap="1" count="1"/>
      <line num="16" type="stmt" count="1"/>
      <metrics loc="17" ncloc="10" classes="1" methods="1" coveredmethods="1" conditionals="0" coveredconditionals="0" statements="1" coveredstatements="1" elements="2" coveredelements="2"/>
    </file>
    <metrics files="1" loc="17" ncloc="10" classes="1" methods="1" coveredmethods="1" conditionals="0" coveredconditionals="0" statements="1" coveredstatements="1" elements="2" coveredelements="2"/>
  </project>
</coverage>
